…
### Question 1

**1. import the data**

``` r
set.seed(10)
iris_with_missing = iris %>% 
  map_df(~replace(.x, sample(1:150, 20), NA)) %>%
  mutate(Species = as.character(Species))
iris_with_missing
```

    ## # A tibble: 150 x 5
    ##    Sepal.Length Sepal.Width Petal.Length Petal.Width Species
    ##           <dbl>       <dbl>        <dbl>       <dbl> <chr>  
    ##  1          5.1         3.5          1.4         0.2 setosa 
    ##  2          4.9         3            1.4         0.2 setosa 
    ##  3          4.7         3.2          1.3         0.2 setosa 
    ##  4          4.6         3.1          1.5        NA   setosa 
    ##  5          5           3.6          1.4         0.2 setosa 
    ##  6          5.4         3.9          1.7         0.4 setosa 
    ##  7         NA           3.4          1.4         0.3 setosa 
    ##  8          5           3.4          1.5         0.2 setosa 
    ##  9          4.4         2.9          1.4         0.2 setosa 
    ## 10          4.9         3.1         NA           0.1 setosa 
    ## # … with 140 more rows
…
  if (is.numeric(x)) {
    y = round(mean(x, na.rm = TRUE),1)
    x = replace_na(x, y)
  } else if (is.character(x)) {
    x = replace_na(x, "virginica")
  }
  x
}
iris_with_missing = map_df(iris_with_missing, replace_function)
iris_with_missing
```

    ## # A tibble: 150 x 5
    ##    Sepal.Length Sepal.Width Petal.Length Petal.Width Species
    ##           <dbl>       <dbl>        <dbl>       <dbl> <chr>  
    ##  1          5.1         3.5          1.4         0.2 setosa 
    ##  2          4.9         3            1.4         0.2 setosa 
    ##  3          4.7         3.2          1.3         0.2 setosa 
    ##  4          4.6         3.1          1.5         1.2 setosa 
    ##  5          5           3.6          1.4         0.2 setosa 
    ##  6          5.4         3.9          1.7         0.4 setosa 
    ##  7          5.8         3.4          1.4         0.3 setosa 
    ##  8          5           3.4          1.5         0.2 setosa 
    ##  9          4.4         2.9          1.4         0.2 setosa 
    ## 10          4.9         3.1          3.8         0.1 setosa 
    ## # … with 140 more rows
…
I also made a longer table:

``` r
longitudinal = longitudinal %>%
  pivot_longer( 
    week_1:week_8,
    names_to = "week", 
    values_to = "data",
    names_prefix = "week_") 
longitudinal
```

    ## # A tibble: 160 x 4
    ##    arm     ID    week   data
    ##    <chr>   <chr> <chr> <dbl>
    ##  1 control 01    1      0.2 
    ##  2 control 01    2     -1.31
    ##  3 control 01    3      0.66
    ##  4 control 01    4      1.96
    ##  5 control 01    5      0.23
    ##  6 control 01    6      1.09
    ##  7 control 01    7      0.05
    ##  8 control 01    8      1.94
    ##  9 control 02    1      1.13
    ## 10 control 02    2     -0.88
    ## # … with 150 more rows
…
